<?xml version="1.0" encoding="UTF-8" standalone="no"?>
<!-- Created with Inkscape (http://www.inkscape.org/) -->

<svg
   xmlns:dc="http://purl.org/dc/elements/1.1/"
   xmlns:cc="http://creativecommons.org/ns#"
   xmlns:rdf="http://www.w3.org/1999/02/22-rdf-syntax-ns#"
   xmlns:svg="http://www.w3.org/2000/svg"
   xmlns="http://www.w3.org/2000/svg"
   xmlns:sodipodi="http://sodipodi.sourceforge.net/DTD/sodipodi-0.dtd"
   xmlns:inkscape="http://www.inkscape.org/namespaces/inkscape"
   width="210mm"
   height="297mm"
   viewBox="0 0 210 297"
   version="1.1"
   id="svg8"
   sodipodi:docname="KalaPenguin.svg"
   inkscape:version="0.92.4 (5da689c313, 2019-01-14)">
  <defs
     id="defs2">
    <filter
       inkscape:collect="always"
       style="color-interpolation-filters:sRGB"
       id="filter2015"
       x="-0.061055795"
       width="1.1221116"
       y="-0.25337356"
       height="1.5067471">
      <feGaussianBlur
         inkscape:collect="always"
         stdDeviation="5.5574388"
         id="feGaussianBlur2017" />
    </filter>
    <filter
       inkscape:collect="always"
       style="color-interpolation-filters:sRGB"
       id="filter2055"
       x="-0.032017063"
       width="1.0640341"
       y="-0.13286662"
       height="1.2657332">
      <feGaussianBlur
         inkscape:collect="always"
         stdDeviation="2.9142667"
         id="feGaussianBlur2057" />
    </filter>
  </defs>
  <sodipodi:namedview
     id="base"
     pagecolor="#ffffff"
     bordercolor="#666666"
     borderopacity="1.0"
     inkscape:pageopacity="0.0"
     inkscape:pageshadow="2"
     inkscape:zoom="0.70710678"
     inkscape:cx="439.56625"
     inkscape:cy="-9750.2605"
     inkscape:document-units="mm"
     inkscape:current-layer="layer1"
     showgrid="false"
     inkscape:snap-smooth-nodes="true"
     inkscape:snap-intersection-paths="true"
     inkscape:object-paths="false"
     inkscape:snap-bbox="true"
     inkscape:snap-bbox-midpoints="true"
     showguides="true"
     inkscape:guide-bbox="true"
     inkscape:snap-bbox-edge-midpoints="true"
     inkscape:bbox-paths="false"
     inkscape:bbox-nodes="true"
     inkscape:snap-midpoints="true"
     inkscape:window-width="1920"
     inkscape:window-height="1051"
     inkscape:window-x="0"
     inkscape:window-y="0"
     inkscape:window-maximized="1"
     inkscape:snap-nodes="true"
     inkscape:snap-global="true">
    <sodipodi:guide
       position="109.84777,105.83874"
       orientation="1,0"
       id="guide18"
       inkscape:locked="false" />
    <sodipodi:guide
       position="89.310433,154.74906"
       orientation="1,0"
       id="guide33"
       inkscape:locked="false" />
    <sodipodi:guide
       position="130.3363,154.74906"
       orientation="1,0"
       id="guide35"
       inkscape:locked="false" />
    <sodipodi:guide
       position="98.551371,146.42106"
       orientation="0,1"
       id="guide111"
       inkscape:locked="false" />
    <sodipodi:guide
       position="66.773111,125.31519"
       orientation="0,1"
       id="guide128"
       inkscape:locked="false" />
    <sodipodi:guide
       position="84.344983,154.35503"
       orientation="0,1"
       id="guide130"
       inkscape:locked="false" />
    <sodipodi:guide
       position="101.89419,146.42106"
       orientation="1,0"
       id="guide134"
       inkscape:locked="false" />
    <sodipodi:guide
       position="117.80135,146.42106"
       orientation="1,0"
       id="guide151"
       inkscape:locked="false" />
    <sodipodi:guide
       position="79.066162,74.803162"
       orientation="1,0"
       id="guide4776"
       inkscape:locked="false" />
    <sodipodi:guide
       position="140.60497,74.803162"
       orientation="1,0"
       id="guide4778"
       inkscape:locked="false" />
    <sodipodi:guide
       position="79.06616,78.250523"
       orientation="0,1"
       id="guide4821"
       inkscape:locked="false" />
    <sodipodi:guide
       position="84.629637,154.35503"
       orientation="1,0"
       id="guide4840"
       inkscape:locked="false" />
    <sodipodi:guide
       position="135.10609,154.35503"
       orientation="1,0"
       id="guide4842"
       inkscape:locked="false" />
    <sodipodi:guide
       position="124.9647,154.35503"
       orientation="1,0"
       id="guide4844"
       inkscape:locked="false" />
    <sodipodi:guide
       position="94.769384,154.35503"
       orientation="1,0"
       id="guide4846"
       inkscape:locked="false" />
    <sodipodi:guide
       position="86.717185,79.705731"
       orientation="0,1"
       id="guide4850"
       inkscape:locked="false" />
    <sodipodi:guide
       position="109.84777,175.62949"
       orientation="0,1"
       id="guide4871"
       inkscape:locked="false" />
    <sodipodi:guide
       position="417.00001,120.11017"
       orientation="1,0"
       id="guide966"
       inkscape:locked="false" />
    <sodipodi:guide
       position="417,120.1102"
       orientation="1,0"
       id="guide968"
       inkscape:locked="false" />
    <sodipodi:guide
       position="343.18812,120.11017"
       orientation="1,0"
       id="guide970"
       inkscape:locked="false" />
    <sodipodi:guide
       position="339.06821,109.5742"
       orientation="1,0"
       id="guide972"
       inkscape:locked="false" />
    <sodipodi:guide
       position="421.11994,97.366675"
       orientation="1,0"
       id="guide974"
       inkscape:locked="false" />
    <sodipodi:guide
       position="343.18812,120.11017"
       orientation="0,1"
       id="guide988"
       inkscape:locked="false" />
    <sodipodi:guide
       position="339.0682,97.456663"
       orientation="0,1"
       id="guide990"
       inkscape:locked="false" />
    <sodipodi:guide
       position="-370.15221,-676.93984"
       orientation="0,1"
       id="guide938"
       inkscape:locked="false" />
    <sodipodi:guide
       position="275.07581,-544.11243"
       orientation="0,1"
       id="guide992"
       inkscape:locked="false" />
    <sodipodi:guide
       position="275.07581,-610.52624"
       orientation="0,1"
       id="guide994"
       inkscape:locked="false" />
    <sodipodi:guide
       position="262.99734,-676.93984"
       orientation="1,0"
       id="guide996"
       inkscape:locked="false" />
    <sodipodi:guide
       position="0.62099391,-878.40198"
       orientation="0,1"
       id="guide1020"
       inkscape:locked="false" />
    <sodipodi:guide
       position="-180.04802,-1289.362"
       orientation="0,1"
       id="guide4002"
       inkscape:locked="false" />
    <sodipodi:guide
       position="589.84778,-1647.3445"
       orientation="0,1"
       id="guide986"
       inkscape:locked="false" />
  </sodipodi:namedview>
  <metadata
     id="metadata5">
    <rdf:RDF>
      <cc:Work
         rdf:about="">
        <dc:format>image/svg+xml</dc:format>
        <dc:type
           rdf:resource="http://purl.org/dc/dcmitype/StillImage" />
      </cc:Work>
    </rdf:RDF>
  </metadata>
  <g
     inkscape:label="Layer 1"
     inkscape:groupmode="layer"
     id="layer1">
    <rect
       style="fill:#061c2a;fill-opacity:1;stroke:none;stroke-width:0.71817702"
       id="rect871"
       width="960"
       height="540"
       x="-589.84778"
       y="433.93982"
       transform="scale(-1,1)"
       inkscape:export-xdpi="101.60001"
       inkscape:export-ydpi="101.60001" />
    <path
       style="fill:#784421;stroke-width:0.26458332"
       d="m 164.50439,154.57956 a 54.65662,17.105249 0 0 1 -54.65662,17.10525 54.65662,17.105249 0 0 1 -54.656619,-17.10525 54.65662,17.105249 0 0 1 54.656619,-17.10525 54.65662,17.105249 0 0 1 54.65662,17.10525 z"
       id="path16"
       inkscape:connector-curvature="0"
       inkscape:export-xdpi="412"
       inkscape:export-ydpi="412" />
    <path
       style="stroke-width:0.26458332;fill:#37abc8;fill-opacity:1"
       d="m 68.821902,147.98492 20.54504,-19.22005 h 20.529638 20.48853 l 20.48853,19.22005 0,74.21192 H 68.821902 Z"
       id="rect13"
       inkscape:connector-curvature="0"
       sodipodi:nodetypes="cccccccc"
       inkscape:export-xdpi="412"
       inkscape:export-ydpi="412" />
    <path
       style="fill:#a05a2c;stroke-width:0.26458332"
       d="m 109.84756,118.9794 c -30.186023,0 -54.656615,24.95042 -54.656615,34.39739 0,0.27175 0.023,0.54163 0.06305,0.81028 a 54.656619,17.105249 0 0 1 54.593575,-16.71267 54.656619,17.105249 0 0 1 54.60337,16.63619 c 0.0329,-0.24349 0.0532,-0.48778 0.0532,-0.7338 0,-9.44697 -24.47059,-34.39739 -54.65661,-34.39739 z"
       id="path16-7"
       inkscape:connector-curvature="0"
       inkscape:export-xdpi="412"
       inkscape:export-ydpi="412" />
    <path
       inkscape:connector-curvature="0"
       style="fill:#d40000;stroke-width:0.26458332"
       d="m -33.361169,151.29118 c 0,9.44697 -24.4706,17.10525 -54.656616,17.10525 -30.186025,0 -54.656625,-7.65828 -54.656625,-17.10525 0,-9.44697 24.4706,-34.39767 54.656625,-34.39767 30.186016,0 54.656616,24.9507 54.656616,34.39767 z"
       id="path16-7-5"
       sodipodi:nodetypes="sssss" />
    <path
       inkscape:connector-curvature="0"
       style="fill:#c87137;stroke-width:0.26458332"
       d="m -33.361169,152.49388 a 54.65662,17.105249 0 0 1 -54.656616,17.10525 54.65662,17.105249 0 0 1 -54.656625,-17.10525 54.65662,17.105249 0 0 1 54.656625,-17.10525 54.65662,17.105249 0 0 1 54.656616,17.10525 z"
       id="path16-3" />
    <g
       id="g4774"
       inkscape:export-xdpi="412"
       inkscape:export-ydpi="412">
      <path
         sodipodi:nodetypes="ccccccccccccccccc"
         inkscape:connector-curvature="0"
         id="rect13-2"
         d="m 117.80135,156.88722 7.16335,-14.24225 h 5.3716 4.76979 l 11.64762,34.24486 -16.41741,22.7435 16.41741,22.56351 H 130.3363 89.310433 72.94182 L 89.310433,199.63333 72.94182,176.88983 84.629637,142.64497 h 4.680796 5.458951 l 7.124806,14.20415 z"
         style="fill:#ffffff;stroke-width:0.26458332" />
    </g>
    <circle
       r="1.7459018"
       cy="150.57893"
       cx="130.3363"
       id="circle153-9"
       style="fill:#000000;stroke-width:0.16649324"
       inkscape:export-xdpi="412"
       inkscape:export-ydpi="412" />
    <circle
       r="1.7459017"
       cy="150.57893"
       cx="89.310432"
       id="circle153"
       style="fill:#000000;stroke-width:0.16649324"
       inkscape:export-xdpi="412"
       inkscape:export-ydpi="412" />
    <path
       style="fill:#ffcc00;stroke:none;stroke-width:0.26458332px;stroke-linecap:butt;stroke-linejoin:miter;stroke-opacity:1"
       d="m 101.89419,156.84912 15.90716,0.0381 -7.95358,9.05268 z"
       id="path4809"
       inkscape:connector-curvature="0"
       sodipodi:nodetypes="cccc"
       inkscape:export-xdpi="412"
       inkscape:export-ydpi="412" />
    <path
       style="fill:#ffcc00;fill-opacity:1;stroke:none;stroke-width:0.99999994"
       d="m 334.72647,821.26969 -23.45508,18.52914 h 46.91211 z m 161.03614,0 -23.45508,18.52914 h 46.91211 z"
       id="path4852"
       inkscape:connector-curvature="0"
       sodipodi:nodetypes="cccccccc"
       transform="scale(0.26458333)"
       inkscape:export-xdpi="412"
       inkscape:export-ydpi="412" />
    <ellipse
       style="fill:#784421;fill-opacity:1;stroke:none;stroke-width:0.26458332"
       id="path4873"
       cx="113.00101"
       cy="120.69819"
       rx="2.2784755"
       ry="1.1926912"
       inkscape:export-xdpi="412"
       inkscape:export-ydpi="412" />
    <ellipse
       style="fill:#784421;fill-opacity:1;stroke:none;stroke-width:0.41258687"
       id="path4873-2"
       cx="105.4472"
       cy="122.46965"
       rx="3.5530171"
       ry="1.8598629"
       inkscape:export-xdpi="412"
       inkscape:export-ydpi="412" />
    <path
       style="fill:#784421;stroke-width:0.26458332"
       d="m -30.394189,254.34964 a 54.65662,17.105249 0 0 1 -54.65663,17.10525 54.65662,17.105249 0 0 1 -54.656621,-17.10525 54.65662,17.105249 0 0 1 54.656621,-17.10525 54.65662,17.105249 0 0 1 54.65663,17.10525 z"
       id="path16-0"
       inkscape:connector-curvature="0" />
    <path
       style="fill:#000000;stroke-width:0.26458332"
       d="m -126.07669,247.755 20.54504,-19.22005 h 20.529641 20.48853 l 20.48853,19.22005 v 74.21192 h -82.051741 z"
       id="rect13-23"
       inkscape:connector-curvature="0"
       sodipodi:nodetypes="cccccccc" />
    <path
       style="fill:#a05a2c;stroke-width:0.26458332"
       d="m -85.051029,218.74948 c -30.186031,0 -54.656621,24.95042 -54.656621,34.39739 0,0.27175 0.023,0.54163 0.0631,0.81028 a 54.65662,17.105249 0 0 1 54.593581,-16.71267 54.65662,17.105249 0 0 1 54.60338,16.63619 c 0.0329,-0.24349 0.0532,-0.48778 0.0532,-0.7338 0,-9.44697 -24.4706,-34.39739 -54.65662,-34.39739 z"
       id="path16-7-7"
       inkscape:connector-curvature="0" />
    <g
       transform="translate(-194.89859,99.770077)"
       id="g4774-5">
      <path
         sodipodi:nodetypes="ccccccccccccccccc"
         inkscape:connector-curvature="0"
         id="rect13-2-9"
         d="m 117.80135,156.88722 7.16335,-14.24225 h 5.3716 4.76979 l 11.64762,34.24486 -16.41741,22.7435 16.41741,22.56351 H 130.3363 89.310433 72.94182 L 89.310433,199.63333 72.94182,176.88983 84.629637,142.64497 h 4.680796 5.458951 l 7.124806,14.20415 z"
         style="fill:#ffffff;stroke-width:0.26458332" />
    </g>
    <circle
       r="1.7459019"
       cy="250.34904"
       cx="-64.562286"
       id="circle153-9-22"
       style="fill:#000000;stroke-width:0.16649324" />
    <circle
       r="1.7459018"
       cy="250.34904"
       cx="-105.58817"
       id="circle153-8"
       style="fill:#000000;stroke-width:0.16649324" />
    <path
       style="fill:#ffcc00;stroke:none;stroke-width:0.26458332px;stroke-linecap:butt;stroke-linejoin:miter;stroke-opacity:1"
       d="m -93.004399,256.6192 15.90716,0.0381 -7.95358,9.05268 z"
       id="path4809-9"
       inkscape:connector-curvature="0"
       sodipodi:nodetypes="cccc" />
    <path
       style="fill:#ffcc00;fill-opacity:1;stroke:none;stroke-width:0.26458332"
       d="m -110.26913,317.06435 -6.20583,4.9025 h 12.41217 z m 50.476501,0 -6.20582,4.9025 h 12.41216 z"
       id="path4852-7"
       inkscape:connector-curvature="0"
       sodipodi:nodetypes="cccccccc" />
    <ellipse
       style="fill:#784421;fill-opacity:1;stroke:none;stroke-width:0.26458332"
       id="path4873-3"
       cx="-81.897583"
       cy="220.46828"
       rx="2.2784755"
       ry="1.1926912" />
    <ellipse
       style="fill:#784421;fill-opacity:1;stroke:none;stroke-width:0.4125869"
       id="path4873-2-6"
       cx="-89.451385"
       cy="222.23973"
       rx="3.5530171"
       ry="1.8598629" />
    <path
       style="fill:#784421;stroke-width:0.26458332"
       d="m 434.75092,265.57308 a 54.65662,17.105249 0 0 1 -54.65663,17.10525 54.65662,17.105249 0 0 1 -54.65662,-17.10525 54.65662,17.105249 0 0 1 54.65662,-17.10525 54.65662,17.105249 0 0 1 54.65663,17.10525 z"
       id="path16-36"
       inkscape:connector-curvature="0"
       inkscape:export-xdpi="412"
       inkscape:export-ydpi="412" />
    <path
       style="fill:#1e557e;fill-opacity:1;stroke-width:0.26458332"
       d="m 339.06842,258.97843 20.54504,-19.22004 h 20.52964 20.48853 l 20.48853,19.22004 v 74.21193 h -82.05174 z"
       id="rect13-7"
       inkscape:connector-curvature="0"
       sodipodi:nodetypes="cccccccc"
       inkscape:export-xdpi="412"
       inkscape:export-ydpi="412" />
    <path
       style="fill:#a05a2c;stroke-width:0.26458332"
       d="m 380.09408,229.97292 c -30.18602,0 -54.65661,24.95042 -54.65661,34.39738 0,0.27176 0.023,0.54164 0.0631,0.81029 a 54.65662,17.105249 0 0 1 54.59357,-16.71267 54.65662,17.105249 0 0 1 54.60338,16.63619 c 0.0329,-0.24349 0.0532,-0.48779 0.0532,-0.73381 0,-9.44696 -24.4706,-34.39738 -54.65662,-34.39738 z"
       id="path16-7-53"
       inkscape:connector-curvature="0"
       inkscape:export-xdpi="412"
       inkscape:export-ydpi="412" />
    <g
       transform="translate(270.24652,110.99352)"
       id="g4774-56"
       inkscape:export-xdpi="412"
       inkscape:export-ydpi="412">
      <path
         sodipodi:nodetypes="ccccccccccccccccc"
         inkscape:connector-curvature="0"
         id="rect13-2-2"
         d="m 117.80135,156.88722 7.16335,-14.24225 h 5.3716 4.76979 l 11.64762,34.24486 -16.41741,22.7435 16.41741,22.56351 H 130.3363 89.310433 72.94182 L 89.310433,199.63333 72.94182,176.88983 84.629637,142.64497 h 4.680796 5.458951 l 7.124806,14.20415 z"
         style="fill:#ffffff;stroke-width:0.26458332" />
    </g>
    <circle
       r="1.7459019"
       cy="261.57245"
       cx="397.12167"
       id="circle153-9-9"
       style="fill:#000000;stroke-width:0.16649324"
       inkscape:export-xdpi="412"
       inkscape:export-ydpi="412" />
    <circle
       r="1.7459018"
       cy="261.57245"
       cx="356.09579"
       id="circle153-1"
       style="fill:#000000;stroke-width:0.16649324"
       inkscape:export-xdpi="412"
       inkscape:export-ydpi="412" />
    <path
       style="fill:#ffcc00;stroke:none;stroke-width:0.26458332px;stroke-linecap:butt;stroke-linejoin:miter;stroke-opacity:1"
       d="m 372.14071,267.84264 15.90716,0.0381 -7.95358,9.05268 z"
       id="path4809-2"
       inkscape:connector-curvature="0"
       sodipodi:nodetypes="cccc"
       inkscape:export-xdpi="412"
       inkscape:export-ydpi="412" />
    <path
       style="fill:#ffcc00;fill-opacity:1;stroke:none;stroke-width:0.26458332"
       d="m 358.80957,328.28779 -6.20583,4.9025 h 12.41217 z m 42.60748,0 -6.20583,4.9025 h 12.41216 z"
       id="path4852-70"
       inkscape:connector-curvature="0"
       sodipodi:nodetypes="cccccccc"
       inkscape:export-xdpi="412"
       inkscape:export-ydpi="412" />
    <ellipse
       style="fill:#784421;fill-opacity:1;stroke:none;stroke-width:0.26458332"
       id="path4873-9"
       cx="383.24753"
       cy="231.69171"
       rx="2.2784755"
       ry="1.1926912"
       inkscape:export-xdpi="412"
       inkscape:export-ydpi="412" />
    <ellipse
       style="fill:#784421;fill-opacity:1;stroke:none;stroke-width:0.4125869"
       id="path4873-2-3"
       cx="375.69373"
       cy="233.46317"
       rx="3.5530171"
       ry="1.8598629"
       inkscape:export-xdpi="412"
       inkscape:export-ydpi="412" />
    <path
       style="fill:#784421;fill-opacity:1;stroke:none;stroke-width:0.99999994"
       d="M 1436.5762 869.18945 C 1430.8139 869.18945 1425.1097 869.44093 1419.4668 869.90234 A 8.6115609 4.5078093 0 0 0 1427.9648 873.69727 A 8.6115609 4.5078093 0 0 0 1436.5762 869.18945 z "
       transform="scale(0.26458333)"
       id="path4873-9-6"
       inkscape:export-xdpi="412"
       inkscape:export-ydpi="412" />
    <path
       style="fill:#784421;stroke-width:0.26458332"
       d="m 434.75071,154.57957 a 54.65662,17.105249 0 0 1 -54.65663,17.10525 54.65662,17.105249 0 0 1 -54.65662,-17.10525 54.65662,17.105249 0 0 1 54.65662,-17.10525 54.65662,17.105249 0 0 1 54.65663,17.10525 z"
       id="path16-6"
       inkscape:connector-curvature="0"
       inkscape:export-xdpi="96"
       inkscape:export-ydpi="96" />
    <path
       style="fill:#37abc8;fill-opacity:1;stroke-width:0.26458332"
       d="m 339.06821,147.98492 20.54504,-19.22004 h 20.52964 20.48853 l 20.48853,19.22004 -1e-5,28.90491 21.56327,22.6535 -21.56326,22.65352 h -82.05174 l -21.56354,-22.65351 21.56354,-22.65351 v -5.20502 z"
       id="rect13-26"
       inkscape:connector-curvature="0"
       sodipodi:nodetypes="ccccccccccccc"
       inkscape:export-xdpi="96"
       inkscape:export-ydpi="96" />
    <path
       style="fill:#a05a2c;stroke-width:0.26458332"
       d="m 380.09387,118.97941 c -30.18602,0 -54.65661,24.95042 -54.65661,34.39738 0,0.27176 0.023,0.54164 0.0631,0.81029 a 54.65662,17.105249 0 0 1 54.59357,-16.71267 54.65662,17.105249 0 0 1 54.60338,16.63619 c 0.0329,-0.24349 0.0532,-0.48779 0.0532,-0.73381 0,-9.44696 -24.4706,-34.39738 -54.65662,-34.39738 z"
       id="path16-7-1"
       inkscape:connector-curvature="0"
       inkscape:export-xdpi="96"
       inkscape:export-ydpi="96" />
    <g
       transform="translate(270.24631,5.3978613e-6)"
       id="g4774-8"
       inkscape:export-xdpi="96"
       inkscape:export-ydpi="96">
      <path
         sodipodi:nodetypes="ccccccccccccccccc"
         inkscape:connector-curvature="0"
         id="rect13-2-7"
         d="m 117.80135,156.88722 7.16335,-14.24225 h 5.3716 4.76979 l 11.64762,34.24486 -2e-5,22.74349 2e-5,22.56352 H 130.3363 89.310433 72.94182 l -1.1e-5,-22.56352 1.1e-5,-22.74349 11.687817,-34.24486 h 4.680796 5.458951 l 7.124806,14.20415 z"
         style="fill:#ffffff;stroke-width:0.26458332" />
    </g>
    <circle
       r="1.7459019"
       cy="150.57893"
       cx="400.58261"
       id="circle153-9-92"
       style="fill:#000000;stroke-width:0.16649324"
       inkscape:export-xdpi="96"
       inkscape:export-ydpi="96" />
    <circle
       r="1.7459018"
       cy="150.57893"
       cx="359.55676"
       id="circle153-02"
       style="fill:#000000;stroke-width:0.16649324"
       inkscape:export-xdpi="96"
       inkscape:export-ydpi="96" />
    <path
       style="fill:#ffcc00;stroke:none;stroke-width:0.26458332px;stroke-linecap:butt;stroke-linejoin:miter;stroke-opacity:1"
       d="m 372.1405,156.84913 15.90716,0.0381 -7.95358,9.05268 z"
       id="path4809-3"
       inkscape:connector-curvature="0"
       sodipodi:nodetypes="cccc"
       inkscape:export-xdpi="96"
       inkscape:export-ydpi="96" />
    <path
       style="fill:#ffcc00;fill-opacity:1;stroke:none;stroke-width:0.26458332"
       d="m 358.80936,217.29428 -6.20583,4.9025 h 12.41217 z m 42.60747,0 -6.20582,4.9025 h 12.41216 z"
       id="path4852-75"
       inkscape:connector-curvature="0"
       sodipodi:nodetypes="cccccccc"
       inkscape:export-xdpi="96"
       inkscape:export-ydpi="96" />
    <ellipse
       style="fill:#784421;fill-opacity:1;stroke:none;stroke-width:0.26458332"
       id="path4873-92"
       cx="383.24731"
       cy="120.69819"
       rx="2.2784755"
       ry="1.1926912"
       inkscape:export-xdpi="96"
       inkscape:export-ydpi="96" />
    <ellipse
       style="fill:#784421;fill-opacity:1;stroke:none;stroke-width:0.4125869"
       id="path4873-2-2"
       cx="375.69351"
       cy="122.46966"
       rx="3.5530171"
       ry="1.8598629"
       inkscape:export-xdpi="96"
       inkscape:export-ydpi="96" />
    <path
       style="fill:#784421;stroke-width:0.57118732"
       d="M 26.513118,827.96641 A 117.99371,36.927125 0 0 1 -91.480606,864.89354 117.99371,36.927125 0 0 1 -209.47432,827.96641 117.99371,36.927125 0 0 1 -91.480606,791.03928 117.99371,36.927125 0 0 1 26.513118,827.96641 Z"
       id="path16-6-3"
       inkscape:connector-curvature="0"
       inkscape:export-xdpi="412"
       inkscape:export-ydpi="412" />
    <path
       style="fill:#37abc8;fill-opacity:1;stroke-width:0.57118732"
       d="m -180.048,813.72976 44.353,-41.49258 h 44.319769 44.23101 l 44.2310031,41.49258 -1.33e-5,62.40045 L 43.637944,925.035 -2.9132179,973.93983 H -180.048 l -46.55177,-48.90482 46.55177,-48.9048 v -11.2367 z"
       id="rect13-26-6"
       inkscape:connector-curvature="0"
       sodipodi:nodetypes="ccccccccccccc"
       inkscape:export-xdpi="412"
       inkscape:export-ydpi="412" />
    <path
       style="fill:#a05a2c;stroke-width:0.57118732"
       d="m -91.481058,751.11213 c -65.166132,0 -117.993692,53.86342 -117.993692,74.2577 0,0.58667 0.0497,1.1693 0.13622,1.74927 a 117.99371,36.927125 0 0 1 117.857605,-36.07962 117.99371,36.927125 0 0 1 117.878761,35.91451 c 0.07102,-0.52566 0.114844,-1.05305 0.114844,-1.58416 0,-20.39428 -52.827575,-74.2577 -117.993698,-74.2577 z"
       id="path16-7-1-7"
       inkscape:connector-curvature="0"
       inkscape:export-xdpi="412"
       inkscape:export-ydpi="412" />
    <g
       transform="matrix(2.1588183,0,0,2.1588183,-328.62196,494.25723)"
       id="g4774-8-5"
       inkscape:export-xdpi="412"
       inkscape:export-ydpi="412">
      <path
         sodipodi:nodetypes="ccccccccccccccccc"
         inkscape:connector-curvature="0"
         id="rect13-2-7-3"
         d="m 117.80135,156.88722 7.16335,-14.24225 h 5.3716 4.76979 l 11.64762,34.24486 -2e-5,22.74349 2e-5,22.56352 H 130.3363 89.310433 72.94182 l -1.1e-5,-22.56352 1.1e-5,-22.74349 11.687817,-34.24486 h 4.680796 5.458951 l 7.124806,14.20415 z"
         style="fill:#ffffff;stroke-width:0.26458332" />
    </g>
    <circle
       r="3.7690854"
       cy="819.32977"
       cx="-47.249557"
       id="circle153-9-92-5"
       style="fill:#000000;stroke-width:0.35942864"
       inkscape:export-xdpi="412"
       inkscape:export-ydpi="412" />
    <circle
       r="3.7690849"
       cy="819.32977"
       cx="-135.81694"
       id="circle153-02-6"
       style="fill:#000000;stroke-width:0.35942864"
       inkscape:export-xdpi="412"
       inkscape:export-ydpi="412" />
    <path
       style="fill:#ffcc00;stroke:none;stroke-width:0.57118732px;stroke-linecap:butt;stroke-linejoin:miter;stroke-opacity:1"
       d="m -108.65095,832.86597 34.340684,0.0822 -17.17034,19.54309 z"
       id="path4809-3-2"
       inkscape:connector-curvature="0"
       sodipodi:nodetypes="cccc"
       inkscape:export-xdpi="412"
       inkscape:export-ydpi="412" />
    <path
       style="fill:#ffcc00;fill-opacity:1;stroke:none;stroke-width:0.57118732"
       d="m -137.43045,963.35607 -13.39726,10.58361 h 26.79563 z m 91.981782,0 -13.397235,10.58361 h 26.795591 z"
       id="path4852-75-9"
       inkscape:connector-curvature="0"
       sodipodi:nodetypes="cccccccc"
       inkscape:export-xdpi="412"
       inkscape:export-ydpi="412" />
    <ellipse
       style="fill:#784421;fill-opacity:1;stroke:none;stroke-width:0.57118732"
       id="path4873-92-1"
       cx="-84.673302"
       cy="754.82263"
       rx="4.9188147"
       ry="2.5748036"
       inkscape:export-xdpi="412"
       inkscape:export-ydpi="412" />
    <ellipse
       style="fill:#784421;fill-opacity:1;stroke:none;stroke-width:0.89070016"
       id="path4873-2-2-2"
       cx="-100.98061"
       cy="758.64691"
       rx="7.6703181"
       ry="4.0151062"
       inkscape:export-xdpi="412"
       inkscape:export-ydpi="412" />
    <path
       style="fill:#784421;stroke-width:0.77568507"
       d="M 543.51197,775.70488 A 160.23808,50.147857 0 0 1 383.27385,825.85274 160.23808,50.147857 0 0 1 223.03577,775.70488 160.23808,50.147857 0 0 1 383.27385,725.55702 160.23808,50.147857 0 0 1 543.51197,775.70488 Z"
       id="path16-36-7"
       inkscape:connector-curvature="0"
       inkscape:export-xdpi="412"
       inkscape:export-ydpi="412" />
    <path
       style="fill:#1e557e;fill-opacity:1;stroke-width:0.77568507"
       d="m 262.99735,756.37119 60.23238,-56.34784 h 60.18722 60.0667 l 60.0667,56.34784 v 217.56884 h -240.553 l -64.02917,-66.41379 64.02916,-66.41381 z"
       id="rect13-7-0"
       inkscape:connector-curvature="0"
       sodipodi:nodetypes="cccccccccc"
       inkscape:export-xdpi="412"
       inkscape:export-ydpi="412" />
    <path
       style="fill:#a05a2c;stroke-width:0.77568507"
       d="m 383.27324,671.33506 c -88.49706,0 -160.23806,73.14773 -160.23806,100.8436 0,0.79672 0.0674,1.58794 0.18499,2.37554 a 160.23808,50.147857 0 0 1 160.05324,-48.99692 160.23808,50.147857 0 0 1 160.082,48.77271 c 0.0965,-0.71385 0.15597,-1.43007 0.15597,-2.15133 0,-27.69587 -71.74103,-100.8436 -160.23809,-100.8436 z"
       id="path16-7-53-9"
       inkscape:connector-curvature="0"
       inkscape:export-xdpi="412"
       inkscape:export-ydpi="412" />
    <g
       transform="matrix(2.9317233,0,0,2.9317233,61.230587,322.52038)"
       id="g4774-56-3"
       inkscape:export-xdpi="412"
       inkscape:export-ydpi="412">
      <path
         sodipodi:nodetypes="cccccccccccccccc"
         inkscape:connector-curvature="0"
         id="rect13-2-2-6"
         d="m 117.80135,156.88722 7.16335,-14.24225 h 5.3716 4.76979 l 11.64762,34.24486 -16.41741,22.7435 16.41741,22.56351 H 130.3363 89.310433 72.94182 v -45.30701 l 11.687817,-34.24486 h 4.680796 5.458951 l 7.124806,14.20415 z"
         style="fill:#ffffff;stroke-width:0.26458332" />
    </g>
    <circle
       r="5.1185017"
       cy="763.9762"
       cx="433.19348"
       id="circle153-9-9-0"
       style="fill:#000000;stroke-width:0.48811209"
       inkscape:export-xdpi="412"
       inkscape:export-ydpi="412" />
    <circle
       r="5.1185012"
       cy="763.9762"
       cx="312.91693"
       id="circle153-1-6"
       style="fill:#000000;stroke-width:0.48811209"
       inkscape:export-xdpi="412"
       inkscape:export-ydpi="412" />
    <path
       style="fill:#ffcc00;stroke:none;stroke-width:0.77568507px;stroke-linecap:butt;stroke-linejoin:miter;stroke-opacity:1"
       d="m 359.95616,782.3586 46.63539,0.1117 -23.3177,26.53995 z"
       id="path4809-2-2"
       inkscape:connector-curvature="0"
       sodipodi:nodetypes="cccc"
       inkscape:export-xdpi="412"
       inkscape:export-ydpi="412" />
    <path
       style="fill:#ffcc00;fill-opacity:1;stroke:none;stroke-width:0.77568507"
       d="m 320.87294,959.56705 -18.19377,14.37277 h 36.38904 z m 124.91334,0 -18.19377,14.37277 h 36.38901 z"
       id="path4852-70-6"
       inkscape:connector-curvature="0"
       sodipodi:nodetypes="cccccccc"
       inkscape:export-xdpi="412"
       inkscape:export-ydpi="412" />
    <ellipse
       style="fill:#784421;fill-opacity:1;stroke:none;stroke-width:0.77568507"
       id="path4873-9-1"
       cx="392.51831"
       cy="676.37415"
       rx="6.6798596"
       ry="3.4966407"
       inkscape:export-xdpi="412"
       inkscape:export-ydpi="412" />
    <ellipse
       style="fill:#784421;fill-opacity:1;stroke:none;stroke-width:1.20959055"
       id="path4873-2-3-8"
       cx="370.37265"
       cy="681.56744"
       rx="10.416463"
       ry="5.4526033"
       inkscape:export-xdpi="412"
       inkscape:export-ydpi="412" />
    <path
       inkscape:connector-curvature="0"
       style="fill:#784421;fill-opacity:1;stroke:none;stroke-width:0.77568507"
       d="m 383.27335,671.33541 c -4.46973,0 -8.89441,0.19496 -13.27153,0.55298 a 6.6798596,3.4966405 0 0 0 6.59178,2.94369 6.6798596,3.4966405 0 0 0 6.67975,-3.49667 z"
       id="path4873-9-6-7"
       inkscape:export-xdpi="412"
       inkscape:export-ydpi="412" />
    <text
       xml:space="preserve"
       style="font-style:normal;font-weight:normal;font-size:10.58333302px;line-height:1.25;font-family:sans-serif;letter-spacing:0px;word-spacing:0px;fill:#00ccff;fill-opacity:1;stroke:none;stroke-width:0.26458332"
       x="-5.166748"
       y="575.90845"
       id="text990"><tspan
         sodipodi:role="line"
         id="tspan988"
         x="-5.166748"
         y="575.90845"
         style="font-style:normal;font-variant:normal;font-weight:normal;font-stretch:normal;font-size:70.55555725px;font-family:Sawasdee;-inkscape-font-specification:Sawasdee;fill:#00ccff;stroke-width:0.26458332">KalaOS</tspan></text>
    <rect
       style="fill:#ffffff;fill-opacity:1;stroke:none;stroke-width:0.01;stroke-miterlimit:4;stroke-dasharray:none"
       id="rect1137"
       width="158.35312"
       height="81.094788"
       x="30.671211"
       y="243.61026"
       inkscape:export-xdpi="101.60001"
       inkscape:export-ydpi="101.60001" />
    <path
       style="fill:#784421;stroke-width:0.26458332"
       d="m 161.61948,283.39769 a 17.105249,54.65662 80.764581 0 1 -51.20288,25.65543 17.105249,54.65662 80.764581 0 1 -56.693366,-8.11159 17.105249,54.65662 80.764581 0 1 51.202876,-25.65544 17.105249,54.65662 80.764581 0 1 56.69337,8.1116 z"
       id="path16-4"
       inkscape:connector-curvature="0"
       inkscape:export-xdpi="412"
       inkscape:export-ydpi="412" />
    <path
       style="fill:#37abc8;fill-opacity:1;stroke-width:0.26458332"
       d="m 68.821908,286.30032 20.545039,-19.22005 h 20.529643 20.48852 l 20.48854,19.22005 v 74.21192 H 68.821908 Z"
       id="rect13-9"
       inkscape:connector-curvature="0"
       sodipodi:nodetypes="cccccccc"
       inkscape:export-xdpi="412"
       inkscape:export-ydpi="412" />
    <path
       style="fill:#a05a2c;stroke-width:0.26458332"
       d="m 101.95763,257.03097 c -29.794728,4.84462 -49.943792,33.39889 -48.427631,42.72341 0.04361,0.26823 0.109637,0.53089 0.192272,0.78965 a 17.105249,54.65662 80.764581 0 1 51.203639,-25.25783 17.105249,54.65662 80.764581 0 1 56.56554,7.65718 c -0.007,-0.24558 -0.026,-0.48998 -0.0653,-0.73283 -1.51583,-9.32456 -29.67386,-30.02418 -59.46859,-25.17958 z"
       id="path16-7-9"
       inkscape:connector-curvature="0"
       inkscape:export-xdpi="412"
       inkscape:export-ydpi="412" />
    <g
       transform="translate(5.321774e-6,138.3154)"
       id="g4774-4"
       inkscape:export-xdpi="412"
       inkscape:export-ydpi="412">
      <path
         sodipodi:nodetypes="ccccccccccccccccc"
         inkscape:connector-curvature="0"
         id="rect13-2-5"
         d="m 117.80135,156.88722 7.16335,-14.24225 h 5.3716 4.76979 l 11.64762,34.24486 -16.41741,22.7435 16.41741,22.56351 H 130.3363 89.310433 72.94182 L 89.310433,199.63333 72.94182,176.88983 84.629637,142.64497 h 4.680796 5.458951 l 7.124806,14.20415 z"
         style="fill:#ffffff;stroke-width:0.26458332" />
    </g>
    <circle
       r="1.7459019"
       cy="284.03"
       cx="132.2072"
       id="circle153-9-93"
       style="fill:#000000;stroke-width:0.16649324"
       inkscape:export-xdpi="412"
       inkscape:export-ydpi="412" />
    <circle
       r="1.7459018"
       cy="284.03"
       cx="91.181328"
       id="circle153-5"
       style="fill:#000000;stroke-width:0.16649324"
       inkscape:export-xdpi="412"
       inkscape:export-ydpi="412" />
    <path
       style="fill:#ffcc00;stroke:none;stroke-width:0.26458332px;stroke-linecap:butt;stroke-linejoin:miter;stroke-opacity:1"
       d="m 101.89419,295.16452 15.90716,0.0381 -7.95357,9.05268 z"
       id="path4809-7"
       inkscape:connector-curvature="0"
       sodipodi:nodetypes="cccc"
       inkscape:export-xdpi="412"
       inkscape:export-ydpi="412" />
    <path
       style="fill:#ffcc00;fill-opacity:1;stroke:none;stroke-width:0.26458332"
       d="m 88.563051,355.60967 -6.205824,4.9025 h 12.412165 z m 42.607479,0 -6.20583,4.9025 h 12.41217 z"
       id="path4852-0"
       inkscape:connector-curvature="0"
       sodipodi:nodetypes="cccccccc"
       inkscape:export-xdpi="412"
       inkscape:export-ydpi="412" />
    <ellipse
       style="fill:#784421;fill-opacity:1;stroke:none;stroke-width:0.26458332"
       id="path4873-8"
       cx="62.538483"
       cy="271.78119"
       rx="2.2784755"
       ry="1.1926912"
       inkscape:export-xdpi="412"
       inkscape:export-ydpi="412"
       transform="rotate(-9.2353598)" />
    <ellipse
       style="fill:#784421;fill-opacity:1;stroke:none;stroke-width:0.4125869"
       id="path4873-2-1"
       cx="54.984673"
       cy="273.55264"
       rx="3.5530171"
       ry="1.8598629"
       inkscape:export-xdpi="412"
       inkscape:export-ydpi="412"
       transform="rotate(-9.2353598)" />
    <rect
       style="fill:#061c2a;fill-opacity:1;stroke:none;stroke-width:0.71817702"
       id="rect871-9"
       width="960"
       height="540"
       x="-587.40039"
       y="1048.4786"
       transform="scale(-1,1)"
       inkscape:export-xdpi="101.60001"
       inkscape:export-ydpi="101.60001" />
    <text
       xml:space="preserve"
       style="font-style:normal;font-weight:normal;font-size:10.58333302px;line-height:1.25;font-family:sans-serif;letter-spacing:0px;word-spacing:0px;fill:#d38d5f;fill-opacity:1;stroke:none;stroke-width:0.26458332"
       x="-5.1667666"
       y="1201.1368"
       id="text990-0-5"><tspan
         sodipodi:role="line"
         id="tspan988-5-6"
         x="-5.1667666"
         y="1201.1368"
         style="font-style:normal;font-variant:normal;font-weight:normal;font-stretch:normal;font-size:70.55555725px;font-family:Sawasdee;-inkscape-font-specification:Sawasdee;fill:#d38d5f;fill-opacity:1;stroke-width:0.26458332">Kala<tspan
   style="fill:#d38d5f;fill-opacity:1"
   id="tspan1028">O</tspan>S</tspan></text>
    <path
       style="fill:#784421;stroke-width:0.57118732"
       d="m 22.603263,1421.0654 a 36.927126,117.99371 81.189283 0 1 -110.945208,54.5645 36.927126,117.99371 81.189283 0 1 -122.257515,-18.418 36.927126,117.99371 81.189283 0 1 110.945216,-54.5647 36.927126,117.99371 81.189283 0 1 122.257507,18.4182 z"
       id="path16-6-3-9"
       inkscape:connector-curvature="0"
       inkscape:export-xdpi="412"
       inkscape:export-ydpi="412" />
    <path
       style="fill:#37abc8;fill-opacity:1;stroke-width:0.57118732"
       d="m -180.04802,1426.152 44.353,-41.4926 h 44.319764 44.23103 l 44.231003,41.4926 -3e-5,62.4004 46.55119,48.9048 -46.55116,48.9048 H -180.04802 l -46.55177,-48.9048 46.55177,-48.9048 v -11.2367 z"
       id="rect13-26-6-7"
       inkscape:connector-curvature="0"
       sodipodi:nodetypes="ccccccccccccc"
       inkscape:export-xdpi="412"
       inkscape:export-ydpi="412" />
    <path
       style="fill:#a05a2c;stroke-width:0.57118732"
       d="m -105.77036,1363.1913 c -64.39717,9.9816 -108.35104,71.3011 -105.22725,91.4547 0.0898,0.5797 0.22821,1.1478 0.40255,1.7077 a 36.927126,117.99371 81.189283 0 1 110.940531,-53.7062 36.927126,117.99371 81.189283 0 1 121.988812,17.4351 c -0.01037,-0.5303 -0.04783,-1.0582 -0.129189,-1.5831 -3.123793,-20.1535 -63.578272,-65.2897 -127.975424,-55.3082 z"
       id="path16-7-1-7-8"
       inkscape:connector-curvature="0"
       inkscape:export-xdpi="412"
       inkscape:export-ydpi="412" />
    <g
       transform="matrix(2.1588183,0,0,2.1588183,-328.62198,1106.6794)"
       id="g4774-8-5-2"
       inkscape:export-xdpi="412"
       inkscape:export-ydpi="412">
      <path
         sodipodi:nodetypes="ccccccccccccccccc"
         inkscape:connector-curvature="0"
         id="rect13-2-7-3-5"
         d="m 117.80135,156.88722 7.16335,-14.24225 h 5.3716 4.76979 l 11.64762,34.24486 -2e-5,22.74349 2e-5,22.56352 H 130.3363 89.310433 72.94182 l -1.1e-5,-22.56352 1.1e-5,-22.74349 11.687817,-34.24486 h 4.680796 5.458951 l 7.124806,14.20415 z"
         style="fill:#ffffff;stroke-width:0.26458332" />
    </g>
    <circle
       r="3.7690854"
       cy="1423.8146"
       cx="-41.164146"
       id="circle153-9-92-5-3"
       style="fill:#000000;stroke-width:0.35942864"
       inkscape:export-xdpi="412"
       inkscape:export-ydpi="412" />
    <circle
       r="3.7690849"
       cy="1423.8146"
       cx="-129.73154"
       id="circle153-02-6-4"
       style="fill:#000000;stroke-width:0.35942864"
       inkscape:export-xdpi="412"
       inkscape:export-ydpi="412" />
    <path
       style="fill:#ffcc00;stroke:none;stroke-width:0.57118732px;stroke-linecap:butt;stroke-linejoin:miter;stroke-opacity:1"
       d="m -108.65098,1445.2882 34.340684,0.082 -17.17032,19.5431 z"
       id="path4809-3-2-9"
       inkscape:connector-curvature="0"
       sodipodi:nodetypes="cccc"
       inkscape:export-xdpi="412"
       inkscape:export-ydpi="412" />
    <path
       style="fill:#ffcc00;fill-opacity:1;stroke:none;stroke-width:0.57118732"
       d="m -137.43047,1575.7783 -13.39725,10.5836 h 26.79562 z m 91.981774,0 -13.39723,10.5836 h 26.79559 z"
       id="path4852-75-9-0"
       inkscape:connector-curvature="0"
       sodipodi:nodetypes="cccccccc"
       inkscape:export-xdpi="412"
       inkscape:export-ydpi="412" />
    <ellipse
       style="fill:#784421;fill-opacity:1;stroke:none;stroke-width:0.57118732"
       id="path4873-92-1-2"
       cx="-306.51544"
       cy="1334.6149"
       rx="4.9188147"
       ry="2.5748038"
       inkscape:export-xdpi="412"
       inkscape:export-ydpi="412"
       transform="rotate(-8.8107171)" />
    <ellipse
       style="fill:#784421;fill-opacity:1;stroke:none;stroke-width:0.89070016"
       id="path4873-2-2-2-0"
       cx="-322.82275"
       cy="1338.4392"
       rx="7.6703181"
       ry="4.0151062"
       inkscape:export-xdpi="412"
       inkscape:export-ydpi="412"
       transform="rotate(-8.8107171)" />
    <path
       style="fill:#784421;stroke-width:0.77568507"
       d="m 540.66275,1401.5129 a 160.23808,50.147858 4.8263792 0 1 -163.88922,36.4881 160.23808,50.147858 4.8263792 0 1 -155.45064,-63.4519 160.23808,50.147858 4.8263792 0 1 163.88918,-36.4882 160.23808,50.147858 4.8263792 0 1 155.45068,63.452 z"
       id="path16-36-7-1"
       inkscape:connector-curvature="0"
       inkscape:export-xdpi="412"
       inkscape:export-ydpi="412" />
    <path
       style="fill:#1e557e;fill-opacity:1;stroke-width:0.77568507"
       d="m 262.99734,1368.7934 60.23237,-56.3479 h 60.18723 60.06669 l 60.06672,56.3479 v 217.5688 H 262.99734 l -64.02916,-66.4138 64.02914,-66.4138 z"
       id="rect13-7-0-9"
       inkscape:connector-curvature="0"
       sodipodi:nodetypes="cccccccccc"
       inkscape:export-xdpi="412"
       inkscape:export-ydpi="412" />
    <path
       style="fill:#a05a2c;stroke-width:0.77568507"
       d="m 389.77352,1284.0311 c -88.18327,-7.4458 -165.82428,59.4066 -168.15452,87.0043 -0.067,0.7938 -0.0664,1.5879 -0.0155,2.3826 a 160.23808,50.147858 4.8263792 0 1 163.60818,-35.3568 160.23808,50.147858 4.8263792 0 1 155.4108,62.0685 c 0.15623,-0.7033 0.27574,-1.4119 0.33642,-2.1306 2.33024,-27.5977 -63.002,-106.5221 -151.18527,-113.968 z"
       id="path16-7-53-9-6"
       inkscape:connector-curvature="0"
       inkscape:export-xdpi="412"
       inkscape:export-ydpi="412" />
    <g
       transform="matrix(2.9317233,0,0,2.9317233,61.230557,934.94255)"
       id="g4774-56-3-2"
       inkscape:export-xdpi="412"
       inkscape:export-ydpi="412">
      <path
         sodipodi:nodetypes="cccccccccccccccc"
         inkscape:connector-curvature="0"
         id="rect13-2-2-6-1"
         d="m 117.80135,156.88722 7.16335,-14.24225 h 5.3716 4.76979 l 11.64762,34.24486 -16.41741,22.7435 16.41741,22.56351 H 130.3363 89.310433 72.94182 v -45.30701 l 11.687817,-34.24486 h 4.680796 5.458951 l 7.124806,14.20415 z"
         style="fill:#ffffff;stroke-width:0.26458332" />
    </g>
    <circle
       r="5.1185017"
       cy="1376.3984"
       cx="433.19345"
       id="circle153-9-9-0-2"
       style="fill:#000000;stroke-width:0.48811209"
       inkscape:export-xdpi="412"
       inkscape:export-ydpi="412" />
    <circle
       r="5.1185012"
       cy="1376.3984"
       cx="312.91693"
       id="circle153-1-6-0"
       style="fill:#000000;stroke-width:0.48811209"
       inkscape:export-xdpi="412"
       inkscape:export-ydpi="412" />
    <path
       style="fill:#ffcc00;stroke:none;stroke-width:0.77568507px;stroke-linecap:butt;stroke-linejoin:miter;stroke-opacity:1"
       d="m 359.95615,1394.7808 46.63538,0.1117 -23.3177,26.5399 z"
       id="path4809-2-2-7"
       inkscape:connector-curvature="0"
       sodipodi:nodetypes="cccc"
       inkscape:export-xdpi="412"
       inkscape:export-ydpi="412" />
    <path
       style="fill:#ffcc00;fill-opacity:1;stroke:none;stroke-width:0.77568507"
       d="m 320.87294,1571.9892 -18.19379,14.3728 h 36.38905 z m 124.91333,0 -18.19378,14.3728 h 36.38902 z"
       id="path4852-70-6-3"
       inkscape:connector-curvature="0"
       sodipodi:nodetypes="cccccccc"
       inkscape:export-xdpi="412"
       inkscape:export-ydpi="412" />
    <ellipse
       style="fill:#784421;fill-opacity:1;stroke:none;stroke-width:0.77568507"
       id="path4873-9-1-1"
       cx="505.67062"
       cy="1251.7231"
       rx="6.6798596"
       ry="3.4966407"
       inkscape:export-xdpi="412"
       inkscape:export-ydpi="412"
       transform="rotate(4.8263792)" />
    <ellipse
       style="fill:#784421;fill-opacity:1;stroke:none;stroke-width:1.20959055"
       id="path4873-2-3-8-1"
       cx="483.52493"
       cy="1256.9164"
       rx="10.416463"
       ry="5.4526033"
       inkscape:export-xdpi="412"
       inkscape:export-ydpi="412"
       transform="rotate(4.8263792)" />
    <path
       inkscape:connector-curvature="0"
       style="fill:#784421;fill-opacity:1;stroke:none;stroke-width:0.77568507"
       d="m 389.7736,1284.0315 c -4.45387,-0.376 -8.87925,-0.5541 -13.271,-0.5656 a 6.6798597,3.4966405 4.8263792 0 0 6.32074,3.4878 6.6798597,3.4966405 4.8263792 0 0 6.95026,-2.9222 z"
       id="path4873-9-6-7-9"
       inkscape:export-xdpi="412"
       inkscape:export-ydpi="412" />
    <g
       id="g973"
       transform="translate(0,-190.31907)">
      <text
         id="text990-0"
         y="1188.3307"
         x="-5.16677"
         style="font-style:normal;font-weight:normal;font-size:10.58333302px;line-height:1.25;font-family:sans-serif;letter-spacing:0px;word-spacing:0px;fill:#00ccff;fill-opacity:1;stroke:none;stroke-width:0.26458332"
         xml:space="preserve"><tspan
           style="font-style:normal;font-variant:normal;font-weight:normal;font-stretch:normal;font-size:70.55555725px;font-family:Sawasdee;-inkscape-font-specification:Sawasdee;fill:#00ccff;stroke-width:0.26458332"
           y="1188.3307"
           x="-5.16677"
           id="tspan988-5"
           sodipodi:role="line">KalaOS</tspan></text>
      <text
         id="text990-0-3"
         y="1188.015"
         x="-5.166748"
         style="font-style:normal;font-weight:normal;font-size:10.58333302px;line-height:1.25;font-family:sans-serif;letter-spacing:0px;word-spacing:0px;fill:#00ccff;fill-opacity:1;stroke:none;stroke-width:0.26458332;filter:url(#filter2055)"
         xml:space="preserve"><tspan
           style="font-style:normal;font-variant:normal;font-weight:normal;font-stretch:normal;font-size:70.55555725px;font-family:Sawasdee;-inkscape-font-specification:Sawasdee;fill:#00ccff;stroke-width:0.26458332"
           y="1188.015"
           x="-5.166748"
           id="tspan988-5-5"
           sodipodi:role="line">KalaOS</tspan></text>
      <text
         id="text990-0-3-6"
         y="1189.9938"
         x="-5.166748"
         style="font-style:normal;font-weight:normal;font-size:10.58333302px;line-height:1.25;font-family:sans-serif;letter-spacing:0px;word-spacing:0px;fill:#00ccff;fill-opacity:1;stroke:none;stroke-width:0.26458332;filter:url(#filter2015)"
         xml:space="preserve"><tspan
           style="font-style:normal;font-variant:normal;font-weight:normal;font-stretch:normal;font-size:70.55555725px;font-family:Sawasdee;-inkscape-font-specification:Sawasdee;fill:#00ccff;stroke-width:0.26458332"
           y="1189.9938"
           x="-5.166748"
           id="tspan988-5-5-2"
           sodipodi:role="line">KalaOS</tspan></text>
    </g>
    <ellipse
       style="fill:#a05a2c;fill-opacity:1;stroke:none;stroke-width:0.01;stroke-miterlimit:4;stroke-dasharray:none"
       id="path1055"
       cx="554.90234"
       cy="1040.1941"
       rx="2.1047475"
       ry="3.5079124"
       transform="rotate(20.520635)" />
    <ellipse
       style="fill:#a05a2c;fill-opacity:1;stroke:none;stroke-width:0.01;stroke-miterlimit:4;stroke-dasharray:none"
       id="path1055-9"
       cx="-1175.6879"
       cy="-154.22482"
       rx="2.1047475"
       ry="3.5079126"
       transform="rotate(-104.43572)" />
    <ellipse
       style="fill:#a05a2c;fill-opacity:1;stroke:none;stroke-width:0.01;stroke-miterlimit:4;stroke-dasharray:none"
       id="path1055-9-3"
       cx="-589.16571"
       cy="1037.0453"
       rx="2.1047475"
       ry="3.5079129"
       transform="rotate(-37.200036)" />
    <rect
       style="fill:#061c2a;fill-opacity:1;stroke:none;stroke-width:0.71817702"
       id="rect871-9-3"
       width="960"
       height="540"
       x="-589.84778"
       y="1674.3445"
       transform="scale(-1,1)"
       inkscape:export-xdpi="101.60001"
       inkscape:export-ydpi="101.60001"
       inkscape:export-filename="/home/kev-test/Desktop/kiwi-descriptions-master/suse/x86_64/suse-tw-kde/root/usr/share/wallpapers/KalaPenguin5brown-splash.png" />
    <text
       xml:space="preserve"
       style="font-style:normal;font-weight:normal;font-size:8.86879539px;line-height:1.25;font-family:sans-serif;letter-spacing:0px;word-spacing:0px;fill:#d38d5f;fill-opacity:1;stroke:none;stroke-width:0.22171988"
       x="338.33798"
       y="1821.9503"
       id="text990-0-5-6"><tspan
         sodipodi:role="line"
         id="tspan988-5-6-7"
         x="338.33798"
         y="1821.9503"
         style="font-style:normal;font-variant:normal;font-weight:normal;font-stretch:normal;font-size:59.12531281px;font-family:Sawasdee;-inkscape-font-specification:Sawasdee;fill:#d38d5f;fill-opacity:1;stroke-width:0.22171988">Kala<tspan
   style="fill:#d38d5f;fill-opacity:1;stroke-width:0.22171988"
   id="tspan1028-5">O</tspan>S</tspan></text>
    <ellipse
       style="fill:#a05a2c;fill-opacity:1;stroke:none;stroke-width:0.00837996;stroke-miterlimit:4;stroke-dasharray:none"
       id="path1055-3"
       cx="1071.7651"
       cy="1515.22"
       rx="1.7637709"
       ry="2.9396181"
       transform="rotate(20.520636)" />
    <ellipse
       style="fill:#a05a2c;fill-opacity:1;stroke:none;stroke-width:0.00837996;stroke-miterlimit:4;stroke-dasharray:none"
       id="path1055-9-7"
       cx="-1860.3049"
       cy="-0.66533071"
       rx="1.7637709"
       ry="2.9396186"
       transform="rotate(-104.43572)" />
    <ellipse
       style="fill:#a05a2c;fill-opacity:1;stroke:none;stroke-width:0.00837996;stroke-miterlimit:4;stroke-dasharray:none"
       id="path1055-9-3-5"
       cx="-713.76538"
       cy="1725.7086"
       rx="1.7637709"
       ry="2.9396186"
       transform="rotate(-37.200036)" />
    <path
       style="fill:#784421;stroke-width:1.19271696"
       d="m 171.71545,2120.9246 a 246.38695,77.108873 0 0 1 -246.386976,77.1088 246.38695,77.108873 0 0 1 -246.386974,-77.1088 246.38695,77.108873 0 0 1 246.386974,-77.1091 246.38695,77.108873 0 0 1 246.386976,77.1091 z"
       id="path16-6-3-92"
       inkscape:connector-curvature="0"
       inkscape:export-xdpi="412"
       inkscape:export-ydpi="412" />
    <path
       style="fill:#37abc8;fill-opacity:1;stroke-width:1.19271696"
       d="m -259.61233,2091.1964 92.61511,-86.6422 h 92.545721 92.360378 l 92.360381,86.6422 -4e-5,130.3007 97.2052,102.1199 -97.20516,102.1199 h -369.88159 l -97.20644,-102.1199 97.20644,-102.1199 v -23.4637 z"
       id="rect13-26-6-2"
       inkscape:connector-curvature="0"
       sodipodi:nodetypes="ccccccccccccc"
       inkscape:export-xdpi="412"
       inkscape:export-ydpi="412" />
    <path
       style="fill:#a05a2c;stroke-width:1.19271696"
       d="m -74.672487,1960.4423 c -136.075763,0 -246.386903,112.4741 -246.386903,155.0602 0,1.2251 0.10378,2.4417 0.28444,3.6528 a 246.38695,77.108873 0 0 1 246.102756,-75.3394 246.38695,77.108873 0 0 1 246.146924,74.9944 c 0.14825,-1.0975 0.2398,-2.1988 0.2398,-3.3078 0,-42.5861 -110.311171,-155.0602 -246.386933,-155.0602 z"
       id="path16-7-1-7-89"
       inkscape:connector-curvature="0"
       inkscape:export-xdpi="412"
       inkscape:export-ydpi="412" />
    <g
       transform="matrix(4.5079069,0,0,4.5079069,-569.85503,1424.0943)"
       id="g4774-8-5-7"
       inkscape:export-xdpi="412"
       inkscape:export-ydpi="412">
      <path
         sodipodi:nodetypes="ccccccccccccccccc"
         inkscape:connector-curvature="0"
         id="rect13-2-7-3-3"
         d="m 117.80135,156.88722 7.16335,-14.24225 h 5.3716 4.76979 l 11.64762,34.24486 -2e-5,22.74349 2e-5,22.56352 H 130.3363 89.310433 72.94182 l -1.1e-5,-22.56352 1.1e-5,-22.74349 11.687817,-34.24486 h 4.680796 5.458951 l 7.124806,14.20415 z"
         style="fill:#ffffff;stroke-width:0.26458332" />
    </g>
    <circle
       r="7.8703642"
       cy="2102.8901"
       cx="17.688932"
       id="circle153-9-92-5-6"
       style="fill:#000000;stroke-width:0.75053602"
       inkscape:export-xdpi="412"
       inkscape:export-ydpi="412" />
    <circle
       r="7.8703632"
       cy="2102.8901"
       cx="-167.25183"
       id="circle153-02-6-1"
       style="fill:#000000;stroke-width:0.75053602"
       inkscape:export-xdpi="412"
       inkscape:export-ydpi="412" />
    <path
       style="fill:#ffcc00;stroke:none;stroke-width:1.19271696px;stroke-linecap:butt;stroke-linejoin:miter;stroke-opacity:1"
       d="m -110.52556,2131.1554 71.708023,0.1712 -35.853989,40.8087 z"
       id="path4809-3-2-2"
       inkscape:connector-curvature="0"
       sodipodi:nodetypes="cccc"
       inkscape:export-xdpi="412"
       inkscape:export-ydpi="412" />
    <path
       style="fill:#ffcc00;fill-opacity:1;stroke:none;stroke-width:1.19271696"
       d="m -170.62108,2403.6365 -27.9753,22.1 h 55.95293 z m 192.070499,0 -27.97524,22.1 h 55.95284 z"
       id="path4852-75-9-9"
       inkscape:connector-curvature="0"
       sodipodi:nodetypes="cccccccc"
       inkscape:export-xdpi="412"
       inkscape:export-ydpi="412" />
    <ellipse
       style="fill:#784421;fill-opacity:1;stroke:none;stroke-width:1.19271696"
       id="path4873-92-1-3"
       cx="-60.456985"
       cy="1968.1902"
       rx="10.271155"
       ry="5.3765411"
       inkscape:export-xdpi="412"
       inkscape:export-ydpi="412" />
    <ellipse
       style="fill:#784421;fill-opacity:1;stroke:none;stroke-width:1.85990334"
       id="path4873-2-2-2-1"
       cx="-94.508842"
       cy="1976.1759"
       rx="16.01667"
       ry="8.3840895"
       inkscape:export-xdpi="412"
       inkscape:export-ydpi="412" />
    <rect
       style="fill:#ffffff;fill-opacity:0;stroke:none;stroke-width:0.19046485"
       id="rect871-3"
       width="254.59775"
       height="143.21123"
       x="-237.14664"
       y="2877.1606"
       transform="scale(-1,1)"
       inkscape:export-xdpi="59.900002"
       inkscape:export-ydpi="59.900002"
       inkscape:export-filename="/home/kev-test/Desktop/kiwi-descriptions-master/suse/x86_64/suse-tw-kde/root/usr/share/calamares/branding/default/KalaPenguin-slide2.png" />
    <path
       style="fill:#784421;stroke-width:0.57118732"
       d="M 227.84148,2975.457 A 117.99371,36.927126 0 0 1 109.84777,3012.3841 117.99371,36.927126 0 0 1 -8.1459689,2975.457 117.99371,36.927126 0 0 1 109.84777,2938.5299 117.99371,36.927126 0 0 1 227.84148,2975.457 Z"
       id="path16-6-3-6"
       inkscape:connector-curvature="0"
       inkscape:export-xdpi="412"
       inkscape:export-ydpi="412" />
    <path
       style="fill:#37abc8;fill-opacity:1;stroke-width:0.57118732"
       d="m 21.280351,2961.2204 44.353,-41.4926 h 44.319779 44.23103 l 44.231,41.4926 -3e-5,62.4004 46.55119,48.9048 -46.55116,48.9048 H 21.280351 l -46.55177,-48.9048 46.55177,-48.9048 v -11.2367 z"
       id="rect13-26-6-75"
       inkscape:connector-curvature="0"
       sodipodi:nodetypes="ccccccccccccc"
       inkscape:export-xdpi="412"
       inkscape:export-ydpi="412" />
    <path
       style="fill:#a05a2c;stroke-width:0.57118732"
       d="m 109.84732,2898.6027 c -65.166159,0 -117.9937189,53.8635 -117.9937189,74.2577 0,0.5867 0.0497,1.1693 0.13622,1.7493 a 117.99371,36.927126 0 0 1 117.8576289,-36.0796 117.99371,36.927126 0 0 1 117.87876,35.9145 c 0.071,-0.5257 0.11482,-1.0531 0.11482,-1.5842 0,-20.3942 -52.82755,-74.2577 -117.99368,-74.2577 z"
       id="path16-7-1-7-3"
       inkscape:connector-curvature="0"
       inkscape:export-xdpi="412"
       inkscape:export-ydpi="412" />
    <g
       transform="matrix(2.1588183,0,0,2.1588183,-127.29361,2641.7478)"
       id="g4774-8-5-5"
       inkscape:export-xdpi="412"
       inkscape:export-ydpi="412">
      <path
         sodipodi:nodetypes="ccccccccccccccccc"
         inkscape:connector-curvature="0"
         id="rect13-2-7-3-6"
         d="m 117.80135,156.88722 7.16335,-14.24225 h 5.3716 4.76979 l 11.64762,34.24486 -2e-5,22.74349 2e-5,22.56352 H 130.3363 89.310433 72.94182 l -1.1e-5,-22.56352 1.1e-5,-22.74349 11.687817,-34.24486 h 4.680796 5.458951 l 7.124806,14.20415 z"
         style="fill:#ffffff;stroke-width:0.26458332" />
    </g>
    <circle
       cy="2966.8203"
       cx="154.07881"
       id="circle153-9-92-5-2"
       style="fill:#000000;stroke-width:0.35942864"
       inkscape:export-xdpi="412"
       inkscape:export-ydpi="412"
       r="3.7690854" />
    <circle
       cy="2966.8203"
       cx="65.511414"
       id="circle153-02-6-9"
       style="fill:#000000;stroke-width:0.35942864"
       inkscape:export-xdpi="412"
       inkscape:export-ydpi="412"
       r="3.7690849" />
    <path
       style="fill:#ffcc00;stroke:none;stroke-width:0.57118732px;stroke-linecap:butt;stroke-linejoin:miter;stroke-opacity:1"
       d="m 92.677401,2980.3566 34.340689,0.082 -17.17032,19.5431 z"
       id="path4809-3-2-1"
       inkscape:connector-curvature="0"
       sodipodi:nodetypes="cccc"
       inkscape:export-xdpi="412"
       inkscape:export-ydpi="412" />
    <path
       style="fill:#ffcc00;fill-opacity:1;stroke:none;stroke-width:0.57118732"
       d="m 63.897901,3110.8467 -13.39725,10.5836 h 26.79562 z m 91.981789,0 -13.39723,10.5836 h 26.79559 z"
       id="path4852-75-9-2"
       inkscape:connector-curvature="0"
       sodipodi:nodetypes="cccccccc"
       inkscape:export-xdpi="412"
       inkscape:export-ydpi="412" />
    <ellipse
       style="fill:#784421;fill-opacity:1;stroke:none;stroke-width:0.57118732"
       id="path4873-92-1-7"
       cx="116.65505"
       cy="2902.3132"
       rx="4.9188147"
       ry="2.5748038"
       inkscape:export-xdpi="412"
       inkscape:export-ydpi="412" />
    <ellipse
       style="fill:#784421;fill-opacity:1;stroke:none;stroke-width:0.89070016"
       id="path4873-2-2-2-09"
       cx="100.34774"
       cy="2906.1375"
       rx="7.6703181"
       ry="4.0151062"
       inkscape:export-xdpi="412"
       inkscape:export-ydpi="412" />
  </g>
</svg>
